[
    {
        "description": "",
        "id": "abstract",
        "image": "abstract.webp",
        "name": "Abstrakt",
        "questions": [
            "Absaugen",
            "Agnostizismus",
            "Aktion",
            "Antwort",
            "Atheismus",
            "Attribut",
            "Aufwand",
            "Ausdruck",
            "Ausfall",
            "Aussehen",
            "Auswirkungen",
            "Bedarf",
            "Bedeutung",
            "Beispiel",
            "Beleidigung",
            "Beratung",
            "Buddhismus",
            "Burn-out",
            "Christentum",
            "Datenschutz",
            "Demut",
            "Durchtriebenheit",
            "Eigenständigkeit",
            "Element",
            "Entspannung",
            "Erfolg",
            "Fairness",
            "Form",
            "Freiheit",
            "Freizeit",
            "Frieden",
            "Gemeinsamkeit",
            "Geographie",
            "Gesundheit",
            "Glaube",
            "Gleichnis",
            "Gleichstellung",
            "Harmonie",
            "Hass",
            "Hoffnung",
            "Humor",
            "Idee",
            "Integrität",
            "Islam",
            "Kampf",
            "Kindlichkeit",
            "Klischee",
            "Klugheit",
            "Komfort",
            "Leidenschaft",
            "Liebe",
            "Mathematik",
            "Meinungsfreiheit",
            "Menschenrecht",
            "Menschlichkeit",
            "Metapher",
            "Missverständnis",
            "Moment",
            "Objektivität",
            "Opferrolle",
            "Philosophie",
            "Popularität",
            "Pressefreiheit",
            "Problem",
            "Psychologie",
            "Reaktion",
            "Realität",
            "Referenz",
            "Respekt",
            "Schicksal",
            "Schutz",
            "Schwierigkeit",
            "Schätzung",
            "Schönheit",
            "Seele",
            "Seelenfrieden",
            "Sicherheit",
            "Sinn für Humor",
            "Sprache",
            "Standort",
            "Stimmung",
            "Stress",
            "Trend",
            "Trost",
            "Unterschied",
            "Urlaub",
            "Verbindung",
            "Verschlüsselung",
            "Verständnis",
            "Volatilität",
            "Wahrheit",
            "Weisheit",
            "Willensfreiheit",
            "Wohlbefinden",
            "Wortart",
            "Zitat",
            "Zufriedenheit"
        ]
    },
    {
        "description": "",
        "id": "animals",
        "image": "animals.webp",
        "name": "Tiere",
        "questions": [
            "Aal",
            "Adler",
            "Affe",
            "Ameise",
            "Antilope",
            "Austern",
            "Biene",
            "Bock",
            "Bulle",
            "Buntspecht",
            "Bär",
            "Chamäleon",
            "Chihuahua",
            "Clownfisch",
            "Delphin",
            "Dinosaurier",
            "Dodo",
            "Eichhörnchen",
            "Eidechse",
            "Einhorn",
            "Elch",
            "Elefant",
            "Ente",
            "Erdferkel",
            "Esel",
            "Eule",
            "Fisch",
            "Fledermaus",
            "Forelle",
            "Frettchen",
            "Frosch",
            "Fruchtfliege",
            "Fuchs",
            "Gans",
            "Gazelle",
            "Gecko",
            "Gepard",
            "Giraffe",
            "Glühwürmchen",
            "Goldfisch",
            "Grille",
            "Grizzlybär",
            "Hahn",
            "Hai",
            "Hamster",
            "Hase",
            "Hirsch",
            "Hornisse",
            "Huhn",
            "Hummer",
            "Hund",
            "Jaguar",
            "Kakerlake",
            "Kamel",
            "Kaninchen",
            "Katze",
            "Kojote",
            "Krabbe",
            "Krokodil",
            "Kröte",
            "Kuckuck",
            "Kuh",
            "Käfer",
            "Känguru",
            "Lachs",
            "Lama",
            "Leopard",
            "Libelle",
            "Löwe",
            "Marienkäfer",
            "Maulwurf",
            "Maus",
            "Meerschweinchen",
            "Mensch",
            "Mistkäfer",
            "Motte",
            "Möwe",
            "Nagetier",
            "Nilpferd",
            "Oltopus",
            "Orang-Utan",
            "Panther",
            "Papagei",
            "Pavian",
            "Pelikan",
            "Pfau",
            "Pferd",
            "Pinguin",
            "Polarbiener",
            "Pony",
            "Puma",
            "Rabe",
            "Ratte",
            "Raupe",
            "Rentier",
            "Sardine",
            "Schaf",
            "Schildkröte",
            "Schimpanse",
            "Schlange",
            "Schmetterling",
            "Schneeleopard",
            "Schwarze Witwe",
            "Schwein",
            "Schwertfisch",
            "Seegurke",
            "Seepferdchen",
            "Seeschildkröte",
            "Seestern",
            "Siegel",
            "Skorpion",
            "Spinne",
            "Stechmücke",
            "Strauß",
            "Straßenläufer",
            "Säugetier",
            "T. rex",
            "Taube",
            "Tausendfüßler",
            "Tiger",
            "Tintenfisch",
            "Tukan",
            "Vogel",
            "Vogelspinne",
            "Wal",
            "Wanze",
            "Wespe",
            "Wiesel",
            "Wolf",
            "Wurm",
            "Yak",
            "Zebra",
            "Ziege",
            "Ziesel"
        ]
    },
    {
        "description": "",
        "id": "food-and-drink",
        "image": "food-and-drink.webp",
        "name": "Essen und Trinken",
        "questions": [
            "Abendessen",
            "Ahornsirup",
            "Ananas",
            "Apfel",
            "Apfelsaft",
            "Aprikose",
            "Aubergine",
            "Auster",
            "Avocado",
            "Banane",
            "Barbecue",
            "Beilage",
            "Birne",
            "Blaubeere",
            "Blumenkohl",
            "Bohne",
            "Brausepulver",
            "Brechbohne",
            "Brezel",
            "Brie",
            "Brokkoli",
            "Brombeere",
            "Brot",
            "Brötchen",
            "Brühe",
            "Burrito",
            "Butter",
            "Cashew",
            "Cheeseburger",
            "Creme",
            "Curry",
            "Donut",
            "Ei",
            "Eierlikör",
            "Erdbeere",
            "Erdnuss",
            "Essiggurke",
            "Falafel",
            "Fisch",
            "Fischfilet",
            "Fischstäbchen",
            "Fleisch",
            "Frühstück",
            "Gemüse",
            "Getreide",
            "Getränk",
            "Gewürz",
            "Glasur",
            "Gouda",
            "Granatapfel",
            "Grapefruit",
            "Grünkohl",
            "Gurke",
            "Hafer",
            "Haferbrei",
            "Haferflocken",
            "Hamburger",
            "Haselnuss",
            "Himbeere",
            "Holunder",
            "Honig",
            "Hähnchen",
            "Häppchen",
            "Hörnchen",
            "Hüttenkäse",
            "Joghurt",
            "Kaffee",
            "Kandiszucker",
            "Karotte",
            "Kartoffel",
            "Kartoffelchip",
            "Kartoffelecke",
            "Kaugummi",
            "Kebab",
            "Keks",
            "Ketchup",
            "Kichererbse",
            "Kichererbsenbohnen",
            "Kidneybohne",
            "Kimchi",
            "Kirsche",
            "Kiwi",
            "Knoblauch",
            "Kokosnuss",
            "Kokosnussmilch",
            "Kopfsalat",
            "Kräuter",
            "Kuchen",
            "Käse",
            "Kürbis",
            "Lachs",
            "Lebkuchen",
            "Limette",
            "Limo",
            "Limonade",
            "Linsen",
            "Mahlzeit",
            "Mais",
            "Mandel",
            "Mango",
            "Mehl",
            "Milch",
            "Milchshake",
            "Mineralwasser",
            "Minze",
            "Mittagessen",
            "Molke",
            "Molkerei",
            "Muffin",
            "Nachspeise",
            "Napfkuchen",
            "Nuss",
            "Obst",
            "Olive",
            "Orange",
            "Orangensaft",
            "Öl",
            "Paprika",
            "Paranuss",
            "Pasta",
            "Peperoni",
            "Pfannkuchen",
            "Pfeffer",
            "Pfirsich",
            "Pflaume",
            "Pilz",
            "Pinienkern",
            "Pistazie",
            "Pizza",
            "Pommes frites",
            "Popcorn",
            "Preiselbeere",
            "Quesadilla",
            "Reis",
            "Rindfleisch",
            "Rosine",
            "Rote Linsen",
            "Roulade",
            "Saft",
            "Salami",
            "Salat",
            "Salz",
            "Sandwich",
            "Sardine",
            "Sauce",
            "Sauerkraut",
            "Schinken",
            "Schlagsahne",
            "Schokolade",
            "Schokoladensplitter",
            "Schweinefleisch",
            "Seafood",
            "Sellerie",
            "Senf",
            "Sirup",
            "Smoothie",
            "Sojasoße",
            "Sorbet",
            "Spaghetti",
            "Speck",
            "Speiseeis",
            "Squash",
            "Steak",
            "Sub",
            "Suppe",
            "Sushi",
            "Taco",
            "Tee",
            "Teig",
            "Thunfisch",
            "Toast",
            "Tofu",
            "Tomate",
            "Tortilla",
            "Trauben",
            "Vorspeise",
            "Waffel",
            "Walnuss",
            "Wasser",
            "Wassermelone",
            "Wurst",
            "Zitrone",
            "Zuccini",
            "Zwiebel",
            "Zwiebelring"
        ]
    },
    {
        "description": "",
        "id": "jobs",
        "image": "jobs.webp",
        "name": "Arbeitsplätze",
        "questions": [
            "Allgemeinmediziner",
            "Apotheker",
            "Architekt",
            "Arzt",
            "Assistent",
            "Astronaut",
            "Augenarzt",
            "Autor",
            "Babysitter",
            "Balletttänzer",
            "Baseball Spieler",
            "Basketball Spieler",
            "Bauer",
            "Berater",
            "Betreuer",
            "Bibliothekar",
            "Blumenhändler",
            "Buchhalter",
            "Busfahrer",
            "Butler",
            "Bäcker",
            "Chef",
            "Chirurg",
            "Clown",
            "Designer",
            "Detektiv",
            "Dichter",
            "Dienstmädchen",
            "Direktor",
            "Diätassistent",
            "Dramatiker",
            "Drehbuchautor",
            "Elektriker",
            "Fahrer",
            "Feuerwehrmann",
            "Fißballspieler",
            "Flugbegleiter",
            "Forscher",
            "Friseur",
            "Frisör",
            "Fußballspieler",
            "Gefängniswärter",
            "Geschäftsführer",
            "Golfer",
            "Grafikdesigner",
            "Gärtner",
            "Hausmeister",
            "Immobilienmakler",
            "Ingenieur",
            "Journalist",
            "Kassierer",
            "Kellner",
            "Kindermädchen",
            "Klempner",
            "Koch",
            "Komiker",
            "Komponist",
            "Krankenschwester",
            "Lehrer",
            "Magier",
            "Maler",
            "Manager",
            "Maskenbildner",
            "Mathematiker",
            "Mechaniker",
            "Minister",
            "Modedesigner",
            "Modell",
            "Moderator",
            "Musiker",
            "Müllmann",
            "Neurologe",
            "Performance-Künstler",
            "Physiker",
            "Politiker",
            "Polizist",
            "Postbote",
            "Priester",
            "Professor",
            "Programmierer",
            "Psychologe",
            "Rechtsanwalt",
            "Reiseleiter",
            "Rezeptionist",
            "Schauspieler",
            "Schneider",
            "Straßenkünstler",
            "Stuntman",
            "Synchronsprecher",
            "Tierarzt",
            "Trainer",
            "Tänzer",
            "Tätowierer",
            "Unternehmer",
            "Verkäufer",
            "Wachmann",
            "Wissenschaftler",
            "Zahnarzt",
            "Zusteller",
            "Übersetzer"
        ]
    },
    {
        "description": "",
        "id": "mythical-creatures",
        "image": "mythical-creatures.webp",
        "name": "Fabelwesen",
        "questions": [
            "abscheulicher Schneemann",
            "Assistent",
            "Chupacabra",
            "Einhorn",
            "Elfe",
            "Engel",
            "Father Time",
            "Fee",
            "Geist",
            "Genie",
            "Großfuß",
            "gute Fee",
            "Hexe",
            "Hexenmeister",
            "Hydra",
            "Kobold",
            "Kraken",
            "Kuppler",
            "Leichenfledderer",
            "Leprechaun",
            "Nixe",
            "Oger",
            "Pegasus",
            "Phönix",
            "Riese",
            "Sandmännchen",
            "Seeungeheuer",
            "Sensenmann",
            "Sirene",
            "'Sphinx '",
            "Teufel",
            "Troll",
            "Ungeheuer von Loch Ness",
            "Vampir",
            "Väterchen Frost",
            "Walküre",
            "Werwolf",
            "Yeti",
            "Zauberer",
            "Zentaur",
            "Zombie",
            "Zwerg"
        ]
    },
    {
        "description": "",
        "id": "classic-literature",
        "image": "classic-literature.webp",
        "name": "Klassische Literatur",
        "questions": [
            "Äsops Fabeln",
            "Alices Abenteuer im Wunderland",
            "Anna Karenina",
            "In achtzig Tagen um die Welt",
            "Aschenputtel",
            "Verbrechen und Strafe",
            "David Copperfield",
            "Don Quijote",
            "Dracula",
            "Emma",
            "Frankenstein",
            "Große Erwartungen",
            "Gulliver's Reisen",
            "Hamlet",
            "Hänsel und Gretel",
            "Ivanhoe",
            "Jack and the Beanstalk",
            "Die Reise zum Mittelpunkt der Erde",
            "Die Elenden",
            "Rotkäppchen",
            "Kleine Frauen",
            "Macbeth",
            "Moby Dick",
            "Oliver Twist",
            "Othello",
            "Peter Pan",
            "Stolz und Vorurteil",
            "Rapunzel",
            "Robinson Crusoe",
            "Romeo und Julia",
            "Rumpelstilzchen",
            "Nibelungenlied",
            "Dornröschen",
            "Schneewittchen",
            "Die Abenteuer des Sherlock Holmes",
            "Die Abenteuer von Tom Sawyer",
            "Die schwarze Katze",
            "Die Brüder Karamasow",
            "Grimms Märchen",
            "Das Fass von Amontillado",
            "Der Graf von Monte Cristo",
            "Des Kaisers neue Kleider",
            "Der Froschkönig",
            "Der große Gatsby",
            "Der Glöckner von Notre-Dame",
            "Der Idiot",
            "Die Ilias",
            "Der unsichtbare Mann",
            "Das Dschungelbuch",
            "Die kleine Meerjungfrau",
            "Die verlorene Welt",
            "Die Metamorphose",
            "Die Nachtigall",
            "Die Odyssee",
            "Das Bildnis des Dorian Gray",
            "Die Prinzessin auf der Erbse",
            "Der Rabe",
            "Der scharlachrote Buchstabe",
            "Der seltsame Fall des Dr. Jekyll und Mr. Hyde",
            "Das verräterische Herz",
            "Die drei Musketiere",
            "Die Zeitmaschine",
            "Der Krieg der Welten",
            "Die Rote Zora",
            "Durch das Spiegelkabinett",
            "Zwölf Jahre Sklave",
            "Zwanzigtausend Meilen unter dem Meer",
            "Krieg und Frieden",
            "Emil und die Detektive",
            "Pippi Langstrumpf"
        ]
    },
    {
        "description": "",
        "id": "historical-figures",
        "image": "historical-figures.webp",
        "name": "Historische Figuren",
        "questions": [
            "Abraham Lincoln",
            "Adolf Hitler",
            "Alan Turing",
            "Albert Einstein",
            "Alexander der Große",
            "Amadeus Mozart",
            "Andy Warhol",
            "Anne Frank",
            "Aristoteles",
            "Benedikt Arnold",
            "Benito Mussolini",
            "Billy the Kid",
            "Bob Ross",
            "Gebrüder Grimm",
            "Buddha",
            "Karl der Große",
            "Charles Darwin",
            "Charlie Chaplin",
            "Christoph Kolumbus",
            "Claude Monet",
            "Kleopatra",
            "Nena",
            "Marlene Dietrich",
            "Ernest Hemingway",
            "Frank Sinatra",
            "Angela Merkel",
            "Friedrich Nietzsche",
            "Galileo Galilei",
            "Dschingis Khan",
            "Brüder Grimm",
            "Bertolt Brecht",
            "Gustav Klimt",
            "Helen Keller",
            "Heinrich Ford",
            "Immanuel Kant",
            "Isaac Newton",
            "Alexander von Humboldt",
            "Jesus",
            "Jeanne d'Arc",
            "Johann Sebastian Bach",
            "Otto von Bismarck",
            "Sissi",
            "John Lennon",
            "Jules Verne",
            "Julius Cäsar",
            "König Artus",
            "König Tut",
            "Leonardo da Vinci",
            "Erich Kästner",
            "Gerhard Schröder",
            "Ludwig van Beethoven",
            "Mahatma Gandhi",
            "Malcolm X",
            "Marie Antoinette",
            "Marie Curie",
            "Mark Twain",
            "Martin Luther King Jr.",
            "Lou Andreas-Salomé",
            "Maria, Königin der Schotten",
            "Michelangelo",
            "Muhammad",
            "Napoléon Bonaparte",
            "Neil Armstrong",
            "Nelson Mandela",
            "Nicolaus Kopernikus",
            "Nikola Tesla",
            "Nina Hagen",
            "Platon",
            "Pocahontas",
            "Pythagoras",
            "René Descartes",
            "Salvador Dalí",
            "Sigmund Freud",
            "Sokrates",
            "Sophie Scholl",
            "Vincent Van Gogh",
            "Wladimir Lenin",
            "Voltaire",
            "Friedrich Schiller",
            "Gebrüder Wright"
        ]
    },
    {
        "description": "",
        "id": "mixup",
        "image": "mixup.webp",
        "name": "Zufällige",
        "questions": []
    }
]